…
``` r
dat %>% 
  count(sample)
```

    ## # A tibble: 80 × 2
    ##    sample     n
    ##    <chr>  <int>
    ##  1 1-A1      26
    ##  2 1-A2      26
    ##  3 1-A3      26
    ##  4 1-A4      26
    ##  5 1-A5      26
    ##  6 1-B1      26
    ##  7 1-B2      26
    ##  8 1-B3      26
    ##  9 1-B4      26
    ## 10 1-B5      26
    ## # … with 70 more rows

``` r
dat %>% 
  count(date, sample)
```

    ## # A tibble: 80 × 3
    ##    date  sample     n
    ##    <chr> <chr>  <int>
    ##  1 1-Mar 1-A1      26
    ##  2 1-Mar 1-A2      26
    ##  3 1-Mar 1-A3      26
    ##  4 1-Mar 1-A4      26
    ##  5 1-Mar 1-A5      26
    ##  6 1-Mar 1-B1      26
    ##  7 1-Mar 1-B2      26
    ##  8 1-Mar 1-B3      26
    ##  9 1-Mar 1-B4      26
    ## 10 1-Mar 1-B5      26
    ## # … with 70 more rows

``` r
dat %>% 
  count(category) 
```

    ## # A tibble: 26 × 2
    ##    category                        n
    ##    <chr>                       <int>
    ##  1 (Household) Hazardous waste    80
    ##  2 All Low Value Plastic          80
    ##  3 Aluminum Waste                 80
    ##  4 Cardboards                     80
    ##  5 Copper waste                   80
    ##  6 Ferrous Metals                 80
    ##  7 Fines                          80
    ##  8 Food/Organic                   80
    ##  9 Glass                          80
    ## 10 HDPE (#2)                      80
    ## # … with 16 more rows

``` r
dat %>% 
  arrange(sample)
```

    ## # A tibble: 2,080 × 5
    ##    date  sample category                  mass_kg percent
    ##    <chr> <chr>  <chr>                       <dbl>   <dbl>
    ##  1 1-Mar 1-A1   Food/Organic                36.6   49.8  
    ##  2 1-Mar 1-A1   Paper (white)                0      0    
    ##  3 1-Mar 1-A1   Other recyclable Paper       0.4    0.545
    ##  4 1-Mar 1-A1   Non-recyclable Paper         0.72   0.981
    ##  5 1-Mar 1-A1   Cardboards                   2.92   3.98 
    ##  6 1-Mar 1-A1   Textile                      3.83   5.22 
    ##  7 1-Mar 1-A1   All Low Value Plastic        4.29   5.84 
    ##  8 1-Mar 1-A1   Medium Value Plastic (#4)    2.46   3.35 
    ##  9 1-Mar 1-A1   PP (#5)                      0.55   0.749
    ## 10 1-Mar 1-A1   PET (#1)                     0.32   0.436
    ## # … with 2,070 more rows

### Summary tables

``` r
dat %>% 
  group_by(sample) %>% 
  summarise(
    sum_mass_kg = sum(mass_kg)
  ) %>% 
  arrange(desc(sum_mass_kg)) 
```

    ## # A tibble: 80 × 2
    ##    sample sum_mass_kg
    ##    <chr>        <dbl>
    ##  1 24-B2         166 
    ##  2 24-B1         166.
    ##  3 23-A3         135.
    ##  4 23-B5         134.
    ##  5 23-B2         128.
    ##  6 23-B4         127.
    ##  7 23-B3         126.
    ##  8 26-B5X        126.
    ##  9 3-A2          123.
    ## 10 23-B1         119.
    ## # … with 70 more rows
…
